%YAML 1.1
%TAG !u! tag:unity3d.com,2011:
--- !u!1001 &7260863064262824149
PrefabInstance:
  m_ObjectHideFlags: 0
  serializedVersion: 2
  m_Modification:
    m_TransformParent: {fileID: 0}
    m_Modifications:
    - target: {fileID: -8732518344963334255, guid: 34687dddb693cc34785ac2cd3afb4f9b,
        type: 3}
      propertyPath: m_audioClip
      value: 
      objectReference: {fileID: 8300000, guid: e8210ab1fe6784e7eb15956b135716c9, type: 3}
    - target: {fileID: -8732518344963334255, guid: 34687dddb693cc34785ac2cd3afb4f9b,
        type: 3}
      propertyPath: BypassReverbZones
      value: 0
      objectReference: {fileID: 0}
    - target: {fileID: 1325346277035445807, guid: 34687dddb693cc34785ac2cd3afb4f9b,
        type: 3}
      propertyPath: SizeModule.enabled
      value: 1
      objectReference: {fileID: 0}
    - target: {fileID: 1325346277035445807, guid: 34687dddb693cc34785ac2cd3afb4f9b,
        type: 3}
      propertyPath: InitialModule.size3D
      value: 0
      objectReference: {fileID: 0}
    - target: {fileID: 1325346277035445807, guid: 34687dddb693cc34785ac2cd3afb4f9b,
        type: 3}
      propertyPath: InitialModule.startSize.scalar
      value: 0.5
      objectReference: {fileID: 0}
    - target: {fileID: 1325346277035445807, guid: 34687dddb693cc34785ac2cd3afb4f9b,
        type: 3}
      propertyPath: InitialModule.startSpeed.scalar
      value: 2
      objectReference: {fileID: 0}
    - target: {fileID: 1325346277035445807, guid: 34687dddb693cc34785ac2cd3afb4f9b,
        type: 3}
      propertyPath: InitialModule.startSize.minScalar
      value: 0.3
      objectReference: {fileID: 0}
    - target: {fileID: 1325346277035445807, guid: 34687dddb693cc34785ac2cd3afb4f9b,
        type: 3}
      propertyPath: InitialModule.startSpeed.minScalar
      value: 1
      objectReference: {fileID: 0}
    - target: {fileID: 1325346277035445807, guid: 34687dddb693cc34785ac2cd3afb4f9b,
        type: 3}
      propertyPath: InitialModule.startColor.maxColor.a
      value: 0.39607844
      objectReference: {fileID: 0}
    - target: {fileID: 1325346277035445807, guid: 34687dddb693cc34785ac2cd3afb4f9b,
        type: 3}
      propertyPath: InitialModule.startColor.maxColor.b
      value: 0
      objectReference: {fileID: 0}
    - target: {fileID: 1325346277035445807, guid: 34687dddb693cc34785ac2cd3afb4f9b,
        type: 3}
      propertyPath: InitialModule.startColor.maxColor.g
      value: 0
      objectReference: {fileID: 0}
    - target: {fileID: 1325346277035445807, guid: 34687dddb693cc34785ac2cd3afb4f9b,
        type: 3}
      propertyPath: InitialModule.startColor.maxColor.r
      value: 0.6037736
      objectReference: {fileID: 0}
    - target: {fileID: 1325346277035445807, guid: 34687dddb693cc34785ac2cd3afb4f9b,
        type: 3}
      propertyPath: InitialModule.startColor.minColor.a
      value: 0.23921569
      objectReference: {fileID: 0}
    - target: {fileID: 1325346277035445807, guid: 34687dddb693cc34785ac2cd3afb4f9b,
        type: 3}
      propertyPath: InitialModule.startColor.minColor.b
      value: 0
      objectReference: {fileID: 0}
    - target: {fileID: 1325346277035445807, guid: 34687dddb693cc34785ac2cd3afb4f9b,
        type: 3}
      propertyPath: InitialModule.startColor.minColor.g
      value: 0
      objectReference: {fileID: 0}
    - target: {fileID: 1325346277035445807, guid: 34687dddb693cc34785ac2cd3afb4f9b,
        type: 3}
      propertyPath: InitialModule.startColor.minColor.r
      value: 0.5
      objectReference: {fileID: 0}
    - target: {fileID: 1325346277035445807, guid: 34687dddb693cc34785ac2cd3afb4f9b,
        type: 3}
      propertyPath: InitialModule.startColor.minMaxState
      value: 2
      objectReference: {fileID: 0}
    - target: {fileID: 1325346277035445807, guid: 34687dddb693cc34785ac2cd3afb4f9b,
        type: 3}
      propertyPath: SizeModule.curve.maxCurve.m_Curve.Array.data[1].time
      value: 0.16596952
      objectReference: {fileID: 0}
    - target: {fileID: 1325346277035445807, guid: 34687dddb693cc34785ac2cd3afb4f9b,
        type: 3}
      propertyPath: SizeModule.curve.maxCurve.m_Curve.Array.data[1].value
      value: 0.26677328
      objectReference: {fileID: 0}
    - target: {fileID: 1325346277035445807, guid: 34687dddb693cc34785ac2cd3afb4f9b,
        type: 3}
      propertyPath: SizeModule.curve.maxCurve.m_Curve.Array.data[0].inSlope
      value: -4.4178395
      objectReference: {fileID: 0}
    - target: {fileID: 1325346277035445807, guid: 34687dddb693cc34785ac2cd3afb4f9b,
        type: 3}
      propertyPath: SizeModule.curve.maxCurve.m_Curve.Array.data[1].inSlope
      value: -2.2092707
      objectReference: {fileID: 0}
    - target: {fileID: 1325346277035445807, guid: 34687dddb693cc34785ac2cd3afb4f9b,
        type: 3}
      propertyPath: SizeModule.curve.maxCurve.m_Curve.Array.data[2].inSlope
      value: -0.31986034
      objectReference: {fileID: 0}
    - target: {fileID: 1325346277035445807, guid: 34687dddb693cc34785ac2cd3afb4f9b,
        type: 3}
      propertyPath: SizeModule.curve.maxCurve.m_Curve.Array.data[0].outSlope
      value: -4.4178395
      objectReference: {fileID: 0}
    - target: {fileID: 1325346277035445807, guid: 34687dddb693cc34785ac2cd3afb4f9b,
        type: 3}
      propertyPath: SizeModule.curve.maxCurve.m_Curve.Array.data[1].inWeight
      value: 0.489213
      objectReference: {fileID: 0}
    - target: {fileID: 1325346277035445807, guid: 34687dddb693cc34785ac2cd3afb4f9b,
        type: 3}
      propertyPath: SizeModule.curve.maxCurve.m_Curve.Array.data[1].outSlope
      value: -2.2092707
      objectReference: {fileID: 0}
    - target: {fileID: 1325346277035445807, guid: 34687dddb693cc34785ac2cd3afb4f9b,
        type: 3}
      propertyPath: SizeModule.curve.maxCurve.m_Curve.Array.data[2].outSlope
      value: -0.31986034
      objectReference: {fileID: 0}
    - target: {fileID: 1619396789634387117, guid: 34687dddb693cc34785ac2cd3afb4f9b,
        type: 3}
      propertyPath: m_Name
      value: HitParticlesBlood
      objectReference: {fileID: 0}
    - target: {fileID: 1619396789634814093, guid: 34687dddb693cc34785ac2cd3afb4f9b,
        type: 3}
      propertyPath: m_RootOrder
      value: 0
      objectReference: {fileID: 0}
    - target: {fileID: 1619396789634814093, guid: 34687dddb693cc34785ac2cd3afb4f9b,
        type: 3}
      propertyPath: m_LocalPosition.x
      value: 0
      objectReference: {fileID: 0}
    - target: {fileID: 1619396789634814093, guid: 34687dddb693cc34785ac2cd3afb4f9b,
        type: 3}
      propertyPath: m_LocalPosition.y
      value: 0
      objectReference: {fileID: 0}
    - target: {fileID: 1619396789634814093, guid: 34687dddb693cc34785ac2cd3afb4f9b,
        type: 3}
      propertyPath: m_LocalPosition.z
      value: 0
      objectReference: {fileID: 0}
    - target: {fileID: 1619396789634814093, guid: 34687dddb693cc34785ac2cd3afb4f9b,
        type: 3}
      propertyPath: m_LocalRotation.w
      value: 1
      objectReference: {fileID: 0}
    - target: {fileID: 1619396789634814093, guid: 34687dddb693cc34785ac2cd3afb4f9b,
        type: 3}
      propertyPath: m_LocalRotation.x
      value: 0
      objectReference: {fileID: 0}
    - target: {fileID: 1619396789634814093, guid: 34687dddb693cc34785ac2cd3afb4f9b,
        type: 3}
      propertyPath: m_LocalRotation.y
      value: 0
      objectReference: {fileID: 0}
    - target: {fileID: 1619396789634814093, guid: 34687dddb693cc34785ac2cd3afb4f9b,
        type: 3}
      propertyPath: m_LocalRotation.z
      value: 0
      objectReference: {fileID: 0}
    - target: {fileID: 1619396789634814093, guid: 34687dddb693cc34785ac2cd3afb4f9b,
        type: 3}
      propertyPath: m_LocalEulerAnglesHint.x
      value: 0
      objectReference: {fileID: 0}
    - target: {fileID: 1619396789634814093, guid: 34687dddb693cc34785ac2cd3afb4f9b,
        type: 3}
      propertyPath: m_LocalEulerAnglesHint.y
      value: 0
      objectReference: {fileID: 0}
    - target: {fileID: 1619396789634814093, guid: 34687dddb693cc34785ac2cd3afb4f9b,
        type: 3}
      propertyPath: m_LocalEulerAnglesHint.z
      value: 0
      objectReference: {fileID: 0}
    - target: {fileID: 1619396789654187117, guid: 34687dddb693cc34785ac2cd3afb4f9b,
        type: 3}
      propertyPath: m_Materials.Array.size
      value: 1
      objectReference: {fileID: 0}
    - target: {fileID: 1619396789654214093, guid: 34687dddb693cc34785ac2cd3afb4f9b,
        type: 3}
      propertyPath: InitialModule.startColor.maxColor.b
      value: 0.009601116
      objectReference: {fileID: 0}
    - target: {fileID: 1619396789654214093, guid: 34687dddb693cc34785ac2cd3afb4f9b,
        type: 3}
      propertyPath: InitialModule.startColor.maxColor.g
      value: 0
      objectReference: {fileID: 0}
    - target: {fileID: 1619396789654214093, guid: 34687dddb693cc34785ac2cd3afb4f9b,
        type: 3}
      propertyPath: InitialModule.startColor.maxColor.r
      value: 1
      objectReference: {fileID: 0}
    - target: {fileID: 4152525276809985936, guid: 34687dddb693cc34785ac2cd3afb4f9b,
        type: 3}
      propertyPath: m_audioClip
      value: 
      objectReference: {fileID: 8300000, guid: 0bf61618aa9203b43a9f912efa0f39d7, type: 3}
    - target: {fileID: 5638732745022819327, guid: 34687dddb693cc34785ac2cd3afb4f9b,
        type: 3}
      propertyPath: m_Materials.Array.data[0]
      value: 
      objectReference: {fileID: 2100000, guid: 473d6d3ec0d161b4a85e466c8c6da3fb, type: 2}
    - target: {fileID: 8526353844139611736, guid: 34687dddb693cc34785ac2cd3afb4f9b,
        type: 3}
      propertyPath: SizeModule.enabled
      value: 1
      objectReference: {fileID: 0}
    - target: {fileID: 8526353844139611736, guid: 34687dddb693cc34785ac2cd3afb4f9b,
        type: 3}
      propertyPath: InitialModule.startSpeed.scalar
      value: 20
      objectReference: {fileID: 0}
    - target: {fileID: 8526353844139611736, guid: 34687dddb693cc34785ac2cd3afb4f9b,
        type: 3}
      propertyPath: InitialModule.startSpeed.minScalar
      value: 1
      objectReference: {fileID: 0}
    - target: {fileID: 8526353844139611736, guid: 34687dddb693cc34785ac2cd3afb4f9b,
        type: 3}
      propertyPath: InitialModule.startColor.maxColor.b
      value: 0
      objectReference: {fileID: 0}
    - target: {fileID: 8526353844139611736, guid: 34687dddb693cc34785ac2cd3afb4f9b,
        type: 3}
      propertyPath: InitialModule.startColor.maxColor.g
      value: 0
      objectReference: {fileID: 0}
    - target: {fileID: 8526353844139611736, guid: 34687dddb693cc34785ac2cd3afb4f9b,
        type: 3}
      propertyPath: InitialModule.startColor.maxColor.r
      value: 0.6037736
      objectReference: {fileID: 0}
    - target: {fileID: 8526353844139611736, guid: 34687dddb693cc34785ac2cd3afb4f9b,
        type: 3}
      propertyPath: InitialModule.startColor.maxGradient.ctime1
      value: 9445
      objectReference: {fileID: 0}
    - target: {fileID: 8526353844139611736, guid: 34687dddb693cc34785ac2cd3afb4f9b,
        type: 3}
      propertyPath: InitialModule.startColor.maxGradient.ctime2
      value: 65535
      objectReference: {fileID: 0}
    - target: {fileID: 8526353844139611736, guid: 34687dddb693cc34785ac2cd3afb4f9b,
        type: 3}
      propertyPath: InitialModule.startColor.maxGradient.key0.b
      value: 0
      objectReference: {fileID: 0}
    - target: {fileID: 8526353844139611736, guid: 34687dddb693cc34785ac2cd3afb4f9b,
        type: 3}
      propertyPath: InitialModule.startColor.maxGradient.key0.g
      value: 0
      objectReference: {fileID: 0}
    - target: {fileID: 8526353844139611736, guid: 34687dddb693cc34785ac2cd3afb4f9b,
        type: 3}
      propertyPath: InitialModule.startColor.maxGradient.key0.r
      value: 0.2735849
      objectReference: {fileID: 0}
    - target: {fileID: 8526353844139611736, guid: 34687dddb693cc34785ac2cd3afb4f9b,
        type: 3}
      propertyPath: InitialModule.startColor.maxGradient.key1.b
      value: 0.009122463
      objectReference: {fileID: 0}
    - target: {fileID: 8526353844139611736, guid: 34687dddb693cc34785ac2cd3afb4f9b,
        type: 3}
      propertyPath: InitialModule.startColor.maxGradient.key1.g
      value: 0.009122463
      objectReference: {fileID: 0}
    - target: {fileID: 8526353844139611736, guid: 34687dddb693cc34785ac2cd3afb4f9b,
        type: 3}
      propertyPath: InitialModule.startColor.maxGradient.key1.r
      value: 0.38679248
      objectReference: {fileID: 0}
    - target: {fileID: 8526353844139611736, guid: 34687dddb693cc34785ac2cd3afb4f9b,
        type: 3}
      propertyPath: InitialModule.startColor.maxGradient.key2.r
      value: 0.8773585
      objectReference: {fileID: 0}
    - target: {fileID: 8526353844139611736, guid: 34687dddb693cc34785ac2cd3afb4f9b,
        type: 3}
      propertyPath: InitialModule.startColor.maxGradient.m_NumColorKeys
      value: 3
      objectReference: {fileID: 0}
    - target: {fileID: 8526353844139611736, guid: 34687dddb693cc34785ac2cd3afb4f9b,
        type: 3}
      propertyPath: SizeModule.curve.maxCurve.m_Curve.Array.data[1].time
      value: 0.33564758
      objectReference: {fileID: 0}
    - target: {fileID: 8526353844139611736, guid: 34687dddb693cc34785ac2cd3afb4f9b,
        type: 3}
      propertyPath: SizeModule.curve.maxCurve.m_Curve.Array.data[1].value
      value: 0.33846283
      objectReference: {fileID: 0}
    - target: {fileID: 8526353844139611736, guid: 34687dddb693cc34785ac2cd3afb4f9b,
        type: 3}
      propertyPath: SizeModule.curve.maxCurve.m_Curve.Array.data[0].inSlope
      value: -1.9709278
      objectReference: {fileID: 0}
    - target: {fileID: 8526353844139611736, guid: 34687dddb693cc34785ac2cd3afb4f9b,
        type: 3}
      propertyPath: SizeModule.curve.maxCurve.m_Curve.Array.data[1].inSlope
      value: -0.14818154
      objectReference: {fileID: 0}
    - target: {fileID: 8526353844139611736, guid: 34687dddb693cc34785ac2cd3afb4f9b,
        type: 3}
      propertyPath: SizeModule.curve.maxCurve.m_Curve.Array.data[0].outSlope
      value: -1.9709278
      objectReference: {fileID: 0}
    - target: {fileID: 8526353844139611736, guid: 34687dddb693cc34785ac2cd3afb4f9b,
        type: 3}
      propertyPath: SizeModule.curve.maxCurve.m_Curve.Array.data[1].inWeight
      value: 0.30929372
      objectReference: {fileID: 0}
    - target: {fileID: 8526353844139611736, guid: 34687dddb693cc34785ac2cd3afb4f9b,
        type: 3}
      propertyPath: SizeModule.curve.maxCurve.m_Curve.Array.data[1].outSlope
      value: -0.14818154
      objectReference: {fileID: 0}
    m_RemovedComponents:
    - {fileID: 4152525276809985936, guid: 34687dddb693cc34785ac2cd3afb4f9b, type: 3}
  m_SourcePrefab: {fileID: 100100000, guid: 34687dddb693cc34785ac2cd3afb4f9b, type: 3}
--- !u!1 &8267065959063428216 stripped
GameObject:
  m_CorrespondingSourceObject: {fileID: 1619396789634387117, guid: 34687dddb693cc34785ac2cd3afb4f9b,
    type: 3}
  m_PrefabInstance: {fileID: 7260863064262824149}
  m_PrefabAsset: {fileID: 0}
--- !u!82 &6060018596967434411
AudioSource:
  m_ObjectHideFlags: 0
  m_CorrespondingSourceObject: {fileID: 0}
  m_PrefabInstance: {fileID: 0}
  m_PrefabAsset: {fileID: 0}
  m_GameObject: {fileID: 8267065959063428216}
  m_Enabled: 1
  serializedVersion: 4
  OutputAudioMixerGroup: {fileID: 0}
  m_audioClip: {fileID: 8300000, guid: 0bf61618aa9203b43a9f912efa0f39d7, type: 3}
  m_PlayOnAwake: 1
  m_Volume: 1
  m_Pitch: 1
  Loop: 0
  Mute: 0
  Spatialize: 0
  SpatializePostEffects: 0
  Priority: 128
  DopplerLevel: 1
  MinDistance: 1
  MaxDistance: 500
  Pan2D: 0
  rolloffMode: 0
  BypassEffects: 0
  BypassListenerEffects: 0
  BypassReverbZones: 0
  rolloffCustomCurve:
    serializedVersion: 2
    m_Curve:
    - serializedVersion: 3
      time: 0
      value: 1
      inSlope: 0
      outSlope: 0
      tangentMode: 0
      weightedMode: 0
      inWeight: 0.33333334
      outWeight: 0.33333334
    - serializedVersion: 3
      time: 1
      value: 0
      inSlope: 0
      outSlope: 0
      tangentMode: 0
      weightedMode: 0
      inWeight: 0.33333334
      outWeight: 0.33333334
    m_PreInfinity: 2
    m_PostInfinity: 2
    m_RotationOrder: 4
  panLevelCustomCurve:
    serializedVersion: 2
    m_Curve:
    - serializedVersion: 3
      time: 0
      value: 0
      inSlope: 0
      outSlope: 0
      tangentMode: 0
      weightedMode: 0
      inWeight: 0.33333334
      outWeight: 0.33333334
    m_PreInfinity: 2
    m_PostInfinity: 2
    m_RotationOrder: 4
  spreadCustomCurve:
    serializedVersion: 2
    m_Curve:
    - serializedVersion: 3
      time: 0
      value: 0
      inSlope: 0
      outSlope: 0
      tangentMode: 0
      weightedMode: 0
      inWeight: 0.33333334
      outWeight: 0.33333334
    m_PreInfinity: 2
    m_PostInfinity: 2
    m_RotationOrder: 4
  reverbZoneMixCustomCurve:
    serializedVersion: 2
    m_Curve:
    - serializedVersion: 3
      time: 0
      value: 1
      inSlope: 0
      outSlope: 0
      tangentMode: 0
      weightedMode: 0
      inWeight: 0.33333334
      outWeight: 0.33333334
    m_PreInfinity: 2
    m_PostInfinity: 2
    m_RotationOrder: 4
--- !u!114 &8927856422380628959
MonoBehaviour:
  m_ObjectHideFlags: 0
  m_CorrespondingSourceObject: {fileID: 0}
  m_PrefabInstance: {fileID: 0}
  m_PrefabAsset: {fileID: 0}
  m_GameObject: {fileID: 8267065959063428216}
  m_Enabled: 1
  m_EditorHideFlags: 0
  m_Script: {fileID: 11500000, guid: a02118c3fd1efe44ebeedcdbd1edf294, type: 3}
  m_Name: 
  m_EditorClassIdentifier: 
  lifetime: 1
